{
  "api": {
    "invokeUrl": "https://epvrixv9h7.execute-api.eu-central-1.amazonaws.com/prod"
  },
  "cognito": {
    "REGION": "eu-central-1",
    "USER_POOL_ID": "eu-central-1_YJPDUArSj",
    "APP_CLIENT_ID": "v44gcpml4n0611b15o44s3knt"
  },
  "aws": {
    "region": "eu-central-1",
    "accessKeyId": "AKIAW7DFSEAPNS3FBUNO",
    "secretAccessKey": "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",
    "iotLightEndpoint": "arn:aws:lambda:eu-central-1:479101853726:function:hexalligth"
  }
}